EESchema Schematic File Version 4
EELAYER 30 0
EELAYER END
$Descr A4 11693 8268
encoding utf-8
Sheet 1 1
Title "esp8266-rts"
Date ""
Rev "1"
Comp ""
Comment1 "https://gitlab.com/zub2/esp8266-rts"
Comment2 ""
Comment3 ""
Comment4 ""
$EndDescr
$Comp
L esp8266-rts-rescue:USB_B_Micro-Connector J1
U 1 1 5D6D9979
P 1000 1300
F 0 "J1" H 1057 1767 50  0000 C CNN
F 1 "USB_B_Micro" H 1057 1676 50  0000 C CNN
F 2 "esp8266-rts:USB_Micro-B_Connfly_DS1105_06" H 1150 1250 50  0001 C CNN
F 3 "~" H 1150 1250 50  0001 C CNN
	1    1000 1300
	1    0    0    -1  
$EndComp
$Comp
L Device:R R2
U 1 1 5D70911B
P 4800 1450
F 0 "R2" H 4870 1496 50  0000 L CNN
F 1 "10K" H 4870 1405 50  0000 L CNN
F 2 "Resistor_SMD:R_1206_3216Metric_Pad1.42x1.75mm_HandSolder" V 4730 1450 50  0001 C CNN
F 3 "~" H 4800 1450 50  0001 C CNN
	1    4800 1450
	1    0    0    -1  
$EndComp
$Comp
L Device:R R3
U 1 1 5D70EA92
P 4950 2150
F 0 "R3" V 4743 2150 50  0000 C CNN
F 1 "1K" V 4834 2150 50  0000 C CNN
F 2 "Resistor_SMD:R_1206_3216Metric_Pad1.42x1.75mm_HandSolder" V 4880 2150 50  0001 C CNN
F 3 "~" H 4950 2150 50  0001 C CNN
	1    4950 2150
	0    1    1    0   
$EndComp
$Comp
L Device:R R1
U 1 1 5D710768
P 3400 1450
F 0 "R1" H 3470 1496 50  0000 L CNN
F 1 "10K" H 3470 1405 50  0000 L CNN
F 2 "Resistor_SMD:R_1206_3216Metric_Pad1.42x1.75mm_HandSolder" V 3330 1450 50  0001 C CNN
F 3 "~" H 3400 1450 50  0001 C CNN
	1    3400 1450
	1    0    0    -1  
$EndComp
$Comp
L Device:R R4
U 1 1 5D711E5A
P 5200 3400
F 0 "R4" H 5270 3446 50  0000 L CNN
F 1 "10K" H 5270 3355 50  0000 L CNN
F 2 "Resistor_SMD:R_1206_3216Metric_Pad1.42x1.75mm_HandSolder" V 5130 3400 50  0001 C CNN
F 3 "~" H 5200 3400 50  0001 C CNN
	1    5200 3400
	1    0    0    -1  
$EndComp
$Comp
L power:GND #PWR06
U 1 1 5D7124D9
P 5200 3550
F 0 "#PWR06" H 5200 3300 50  0001 C CNN
F 1 "GND" H 5205 3377 50  0000 C CNN
F 2 "" H 5200 3550 50  0001 C CNN
F 3 "" H 5200 3550 50  0001 C CNN
	1    5200 3550
	1    0    0    -1  
$EndComp
$Comp
L power:GND #PWR08
U 1 1 5D759643
P 7000 3450
F 0 "#PWR08" H 7000 3200 50  0001 C CNN
F 1 "GND" H 7005 3277 50  0000 C CNN
F 2 "" H 7000 3450 50  0001 C CNN
F 3 "" H 7000 3450 50  0001 C CNN
	1    7000 3450
	1    0    0    -1  
$EndComp
$Comp
L Device:Antenna AE1
U 1 1 5D75C7C3
P 7450 2450
F 0 "AE1" H 7200 2550 50  0000 L CNN
F 1 "Antenna" H 7100 2450 50  0000 L CNN
F 2 "esp8266-rts:SolderWirePad_1x01_Drill1mm_Pad2mm" H 7450 2450 50  0001 C CNN
F 3 "~" H 7450 2450 50  0001 C CNN
	1    7450 2450
	1    0    0    -1  
$EndComp
Wire Wire Line
	7400 2650 7450 2650
$Comp
L power:GND #PWR04
U 1 1 5D711ADA
P 4100 3450
F 0 "#PWR04" H 4100 3200 50  0001 C CNN
F 1 "GND" H 4105 3277 50  0000 C CNN
F 2 "" H 4100 3450 50  0001 C CNN
F 3 "" H 4100 3450 50  0001 C CNN
	1    4100 3450
	1    0    0    -1  
$EndComp
Wire Wire Line
	3500 2350 3400 2350
$Comp
L RF_Module:ESP-07 U2
U 1 1 5D6D8589
P 4100 2750
F 0 "U2" H 3850 3600 50  0000 C CNN
F 1 "ESP-07" H 3850 3500 50  0000 C CNN
F 2 "RF_Module:ESP-07" H 4100 2750 50  0001 C CNN
F 3 "http://wiki.ai-thinker.com/_media/esp8266/esp8266_series_modules_user_manual_v1.1.pdf" H 3750 2850 50  0001 C CNN
	1    4100 2750
	1    0    0    -1  
$EndComp
Wire Wire Line
	6400 3150 6350 3150
$Comp
L Device:C C4
U 1 1 5D704270
P 4250 1600
F 0 "C4" V 4100 1550 50  0000 C CNN
F 1 "100nF" V 4100 1750 50  0000 C CNN
F 2 "Capacitor_SMD:C_1206_3216Metric_Pad1.42x1.75mm_HandSolder" H 4288 1450 50  0001 C CNN
F 3 "~" H 4250 1600 50  0001 C CNN
	1    4250 1600
	0    1    1    0   
$EndComp
$Comp
L power:GND #PWR05
U 1 1 5D70487C
P 4550 1600
F 0 "#PWR05" H 4550 1350 50  0001 C CNN
F 1 "GND" H 4555 1427 50  0000 C CNN
F 2 "" H 4550 1600 50  0001 C CNN
F 3 "" H 4550 1600 50  0001 C CNN
	1    4550 1600
	1    0    0    -1  
$EndComp
Wire Wire Line
	5800 2650 6400 2650
$Comp
L RF_Module:RFM69HW U3
U 1 1 5D6D910D
P 6900 2950
F 0 "U3" H 6650 3550 50  0000 C CNN
F 1 "RFM69HW" H 6650 3450 50  0000 C CNN
F 2 "esp8266-rts:HOPERF_RFM69HW_LongerPads" H 6900 2350 50  0001 C CNN
F 3 "https://www.hoperf.com/data/upload/portal/20181127/5bfcbb56f1fd7.pdf" H 6900 2650 50  0001 C CNN
	1    6900 2950
	1    0    0    -1  
$EndComp
Wire Wire Line
	5800 2950 5800 2650
Wire Wire Line
	7400 2850 7700 2850
Wire Wire Line
	5700 2650 5700 2250
Wire Wire Line
	5700 2250 7700 2250
Wire Wire Line
	7700 2250 7700 2850
Wire Wire Line
	7400 2750 7800 2750
Wire Wire Line
	5600 2550 5600 2150
Wire Wire Line
	5600 2150 7800 2150
Wire Wire Line
	7800 2150 7800 2750
$Comp
L power:GND #PWR03
U 1 1 5D815C04
P 2450 1400
F 0 "#PWR03" H 2450 1150 50  0001 C CNN
F 1 "GND" H 2455 1227 50  0000 C CNN
F 2 "" H 2450 1400 50  0001 C CNN
F 3 "" H 2450 1400 50  0001 C CNN
	1    2450 1400
	1    0    0    -1  
$EndComp
$Comp
L Connector:Conn_01x05_Male J3
U 1 1 5D8414EE
P 5400 1350
F 0 "J3" V 5462 1594 50  0000 L CNN
F 1 "SERIAL_3.3" V 5553 1594 50  0000 L CNN
F 2 "esp8266-rts:PinSocket_1x05_P2.54mm_Horizontal_HandSolder" H 5400 1350 50  0001 C CNN
F 3 "~" H 5400 1350 50  0001 C CNN
	1    5400 1350
	0    1    1    0   
$EndComp
Wire Wire Line
	5600 1700 5600 1550
Text Label 5600 1550 3    50   ~ 0
GND
Text Label 5200 1550 3    50   ~ 0
TXD
Text Label 5300 1550 3    50   ~ 0
RXD
Text Label 5400 1550 3    50   ~ 0
RTS
Text Label 5500 1550 3    50   ~ 0
DTR
$Comp
L power:GND #PWR07
U 1 1 5D86637C
P 5600 1700
F 0 "#PWR07" H 5600 1450 50  0001 C CNN
F 1 "GND" H 5605 1527 50  0000 C CNN
F 2 "" H 5600 1700 50  0001 C CNN
F 3 "" H 5600 1700 50  0001 C CNN
	1    5600 1700
	1    0    0    -1  
$EndComp
Wire Wire Line
	3400 1300 3400 1100
Wire Wire Line
	3400 2350 3400 1850
Wire Wire Line
	5200 3250 5200 3050
Wire Wire Line
	4800 1600 4800 2150
Wire Wire Line
	4800 1300 4800 1100
Connection ~ 3400 1850
Wire Wire Line
	3400 1600 3400 1850
NoConn ~ 4700 2350
$Comp
L power:GND #PWR09
U 1 1 5D703365
P 7350 1900
F 0 "#PWR09" H 7350 1650 50  0001 C CNN
F 1 "GND" H 7355 1727 50  0000 C CNN
F 2 "" H 7350 1900 50  0001 C CNN
F 3 "" H 7350 1900 50  0001 C CNN
	1    7350 1900
	1    0    0    -1  
$EndComp
$Comp
L Device:C C5
U 1 1 5D701C9E
P 7050 1400
F 0 "C5" V 6800 1400 50  0000 C CNN
F 1 "1µF" V 6900 1400 50  0000 C CNN
F 2 "Capacitor_SMD:C_1206_3216Metric_Pad1.42x1.75mm_HandSolder" H 7088 1250 50  0001 C CNN
F 3 "~" H 7050 1400 50  0001 C CNN
	1    7050 1400
	0    1    1    0   
$EndComp
NoConn ~ 1300 1300
NoConn ~ 1300 1400
NoConn ~ 1300 1500
NoConn ~ 900  1700
Wire Wire Line
	5900 2950 5900 3050
Wire Wire Line
	5900 3050 5200 3050
Wire Wire Line
	5900 2950 6400 2950
NoConn ~ 7400 2950
NoConn ~ 7400 3050
NoConn ~ 7400 3150
NoConn ~ 7400 3250
NoConn ~ 3500 2550
Connection ~ 4800 1100
Wire Wire Line
	4800 1100 6900 1100
Wire Wire Line
	4800 2150 4700 2150
Wire Wire Line
	5600 2550 4700 2550
Wire Wire Line
	5700 2650 4700 2650
Wire Wire Line
	6400 2750 4700 2750
Wire Wire Line
	6400 2850 4700 2850
Wire Wire Line
	5800 2950 4700 2950
Wire Wire Line
	5200 3050 4700 3050
Connection ~ 5200 3050
Wire Wire Line
	6050 3150 4700 3150
Connection ~ 4100 1100
Wire Wire Line
	4100 1100 4800 1100
Wire Wire Line
	3400 1100 4100 1100
$Comp
L power:GND #PWR02
U 1 1 5DCB3D7B
P 2300 2150
F 0 "#PWR02" H 2300 1900 50  0001 C CNN
F 1 "GND" H 2305 1977 50  0000 C CNN
F 2 "" H 2300 2150 50  0001 C CNN
F 3 "" H 2300 2150 50  0001 C CNN
	1    2300 2150
	1    0    0    -1  
$EndComp
Wire Wire Line
	2600 2150 2300 2150
Wire Wire Line
	2700 1850 2700 2150
Wire Wire Line
	1550 1850 2100 1850
Wire Wire Line
	2100 1400 2100 1850
Wire Wire Line
	1550 1400 1550 1850
Wire Wire Line
	1000 1700 1000 1850
Wire Wire Line
	1000 1850 1550 1850
Connection ~ 1550 1850
NoConn ~ 3500 2150
Wire Wire Line
	2800 1100 2800 2150
$Comp
L power:PWR_FLAG #FLG01
U 1 1 5DD53E4A
P 1000 3000
F 0 "#FLG01" H 1000 3075 50  0001 C CNN
F 1 "PWR_FLAG" H 1000 3173 50  0000 C CNN
F 2 "" H 1000 3000 50  0001 C CNN
F 3 "~" H 1000 3000 50  0001 C CNN
	1    1000 3000
	1    0    0    -1  
$EndComp
$Comp
L power:GND #PWR01
U 1 1 5DD54CD3
P 1000 3150
F 0 "#PWR01" H 1000 2900 50  0001 C CNN
F 1 "GND" H 1005 2977 50  0000 C CNN
F 2 "" H 1000 3150 50  0001 C CNN
F 3 "" H 1000 3150 50  0001 C CNN
	1    1000 3150
	1    0    0    -1  
$EndComp
Wire Wire Line
	1000 3000 1000 3150
Text Notes 4750 2350 0    50   ~ 0
LED
$Comp
L Device:C C6
U 1 1 5DD6B190
P 7050 1850
F 0 "C6" V 6800 1850 50  0000 C CNN
F 1 "100nF" V 6900 1850 50  0000 C CNN
F 2 "Capacitor_SMD:C_1206_3216Metric_Pad1.42x1.75mm_HandSolder" H 7088 1700 50  0001 C CNN
F 3 "~" H 7050 1850 50  0001 C CNN
	1    7050 1850
	0    1    1    0   
$EndComp
Wire Wire Line
	7350 1400 7200 1400
Wire Wire Line
	7200 1850 7350 1850
Wire Wire Line
	7350 1850 7350 1900
$Comp
L Diode:1N4007 D1
U 1 1 5DD94E09
P 6200 3150
F 0 "D1" H 6200 3250 50  0000 C CNN
F 1 "TS4148 RXG" H 6200 3350 50  0000 C CNN
F 2 "Diode_SMD:D_1206_3216Metric_Pad1.42x1.75mm_HandSolder" H 6200 2975 50  0001 C CNN
F 3 "https://www.taiwansemi.com/products/datasheet/TS4148%20RXG_O1803.pdf" H 6200 3150 50  0001 C CNN
	1    6200 3150
	-1   0    0    1   
$EndComp
Connection ~ 6900 1400
Wire Wire Line
	6900 1400 6900 1850
Wire Wire Line
	6900 1100 6900 1400
Wire Wire Line
	7350 1400 7350 1850
Connection ~ 7350 1850
Connection ~ 4100 1600
Wire Wire Line
	4100 1600 4100 1950
Wire Wire Line
	4400 1600 4550 1600
Wire Wire Line
	4400 1300 4550 1300
Wire Wire Line
	4550 1300 4550 1600
Connection ~ 4550 1600
Wire Wire Line
	4100 1100 4100 1300
$Comp
L Device:CP C3
U 1 1 5DE0FB4E
P 4250 1300
F 0 "C3" V 4400 1350 50  0000 C CNN
F 1 "220µF" V 4400 1150 50  0000 C CNN
F 2 "Capacitor_SMD:CP_Elec_6.3x7.7" H 4288 1150 50  0001 C CNN
F 3 "~" H 4250 1300 50  0001 C CNN
	1    4250 1300
	0    -1   -1   0   
$EndComp
Connection ~ 4100 1300
Wire Wire Line
	4100 1300 4100 1600
Connection ~ 2100 1850
$Comp
L Connector:Barrel_Jack_Switch J2
U 1 1 5DCC1C0B
P 2700 2450
F 0 "J2" V 2750 2150 50  0000 L CNN
F 1 "Barrel_Jack_Switch" V 2650 1550 50  0000 L CNN
F 2 "esp8266-rts:BarrelJack_SCD_016_Horizontal_CircularHoles" H 2750 2410 50  0001 C CNN
F 3 "~" H 2750 2410 50  0001 C CNN
	1    2700 2450
	0    1    -1   0   
$EndComp
Connection ~ 3400 1100
Connection ~ 2800 1100
Wire Wire Line
	2100 1850 2700 1850
Wire Wire Line
	6900 2450 6900 1850
Connection ~ 6900 1850
Wire Wire Line
	2950 1100 2800 1100
Wire Wire Line
	3250 1100 3400 1100
$Comp
L Device:Polyfuse F1
U 1 1 5DC4EB60
P 3100 1100
F 0 "F1" V 2875 1100 50  0000 C CNN
F 1 "PPTC 1812SMD050" V 2966 1100 50  0000 C CNN
F 2 "Fuse:Fuse_1812_4532Metric_Pad1.30x3.40mm_HandSolder" H 3150 900 50  0001 L CNN
F 3 "http://www.hitano.com.tw/wp-content/uploads/doc/PPTC-SMD_20160415.pdf" H 3100 1100 50  0001 C CNN
	1    3100 1100
	0    1    1    0   
$EndComp
$Comp
L esp8266-rts:TS1117BCW33 U1
U 1 1 5DD77AAA
P 2100 1100
F 0 "U1" H 2100 1342 50  0000 C CNN
F 1 "TS1117BCW33" H 2100 1251 50  0000 C CNN
F 2 "Package_TO_SOT_SMD:SOT-223" H 2100 1325 50  0001 C CIN
F 3 "https://www.taiwansemi.com/products/datasheet/TS1117B_H1607.pdf" H 2100 1050 50  0001 C CNN
	1    2100 1100
	1    0    0    -1  
$EndComp
$Comp
L Device:C C1
U 1 1 5DD8104C
P 1550 1250
F 0 "C1" H 1665 1296 50  0000 L CNN
F 1 "10µF" H 1665 1205 50  0000 L CNN
F 2 "Capacitor_SMD:C_1206_3216Metric_Pad1.42x1.75mm_HandSolder" H 1588 1100 50  0001 C CNN
F 3 "~" H 1550 1250 50  0001 C CNN
	1    1550 1250
	1    0    0    -1  
$EndComp
$Comp
L Device:C C2
U 1 1 5DD81B76
P 2450 1250
F 0 "C2" H 2565 1296 50  0000 L CNN
F 1 "10µF" H 2565 1205 50  0000 L CNN
F 2 "Capacitor_SMD:C_1206_3216Metric_Pad1.42x1.75mm_HandSolder" H 2488 1100 50  0001 C CNN
F 3 "~" H 2450 1250 50  0001 C CNN
	1    2450 1250
	1    0    0    -1  
$EndComp
Wire Wire Line
	2400 1100 2450 1100
Wire Wire Line
	1300 1100 1550 1100
Connection ~ 1550 1100
Wire Wire Line
	1550 1100 1800 1100
Connection ~ 2450 1100
Wire Wire Line
	2450 1100 2800 1100
$Comp
L Mechanical:MountingHole H1
U 1 1 5DDB947B
P 950 3900
F 0 "H1" H 1050 3946 50  0000 L CNN
F 1 "MountingHole" H 1050 3855 50  0000 L CNN
F 2 "MountingHole:MountingHole_3.2mm_M3" H 950 3900 50  0001 C CNN
F 3 "~" H 950 3900 50  0001 C CNN
	1    950  3900
	1    0    0    -1  
$EndComp
$Comp
L Mechanical:MountingHole H2
U 1 1 5DDB9C60
P 950 4100
F 0 "H2" H 1050 4146 50  0000 L CNN
F 1 "MountingHole" H 1050 4055 50  0000 L CNN
F 2 "MountingHole:MountingHole_3.2mm_M3" H 950 4100 50  0001 C CNN
F 3 "~" H 950 4100 50  0001 C CNN
	1    950  4100
	1    0    0    -1  
$EndComp
$Comp
L Mechanical:MountingHole H3
U 1 1 5DDBA584
P 950 4300
F 0 "H3" H 1050 4346 50  0000 L CNN
F 1 "MountingHole" H 1050 4255 50  0000 L CNN
F 2 "MountingHole:MountingHole_3.2mm_M3" H 950 4300 50  0001 C CNN
F 3 "~" H 950 4300 50  0001 C CNN
	1    950  4300
	1    0    0    -1  
$EndComp
$Comp
L Mechanical:MountingHole H4
U 1 1 5DDBADD4
P 950 4500
F 0 "H4" H 1050 4546 50  0000 L CNN
F 1 "MountingHole" H 1050 4455 50  0000 L CNN
F 2 "MountingHole:MountingHole_3.2mm_M3" H 950 4500 50  0001 C CNN
F 3 "~" H 950 4500 50  0001 C CNN
	1    950  4500
	1    0    0    -1  
$EndComp
Wire Wire Line
	5500 2150 5500 1550
Wire Wire Line
	5400 1850 5400 1550
Wire Wire Line
	3400 1850 5400 1850
Wire Wire Line
	5300 1550 5300 2450
Wire Wire Line
	5300 2450 4700 2450
Wire Wire Line
	4700 2250 5200 2250
Connection ~ 4800 2150
Wire Wire Line
	5100 2150 5500 2150
Wire Wire Line
	5200 1550 5200 2250
$EndSCHEMATC
